Gov 50 Final Project
…
WHDF2023 <- Data1 |>
  select(-c(`Ladder score in Dystopia`:`Dystopia + residual`)) |>
  select(-c(`Standard error of ladder score`: `lowerwhisker`)) |>
  select(-c(`Healthy life expectancy`:`Perceptions of corruption`)) |>
  rename(country = `Country name`, 
         happiness_score = `Ladder score`, 
         GDP_per_capita =`Logged GDP per capita`,
         social_support = `Social support`) |>
  arrange(desc(happiness_score)) 
WHDF2023

# A tibble: 137 × 4
   country     happiness_score GDP_per_capita social_support
   <chr>                 <dbl>          <dbl>          <dbl>
 1 Finland                7.80           10.8          0.969
 2 Denmark                7.59           11.0          0.954
 3 Iceland                7.53           10.9          0.983
 4 Israel                 7.47           10.6          0.943
 5 Netherlands            7.40           10.9          0.93 
 6 Sweden                 7.40           10.9          0.939
 7 Norway                 7.32           11.1          0.943
 8 Switzerland            7.24           11.2          0.92 
 9 Luxembourg             7.23           11.7          0.879
10 New Zealand            7.12           10.7          0.952
# ℹ 127 more rows
…
